03_verif/InsertionSort/tb_insertionSort.vcd
$version Generated by VerilatedVcd $end
$timescale 1ps $end
 $scope module TOP $end
  $scope module tb_insertionSort $end
   $var wire 32 J SIZE_DATA [31:0] $end
   $var wire 32 J NUM_VALS [31:0] $end
   $var wire 1 I i_clk $end
   $var wire 1 # i_rst_n $end
   $var wire 1 $ i_start $end
   $var wire 8 % i_data[0] [7:0] $end
   $var wire 8 & i_data[1] [7:0] $end
   $var wire 8 ' i_data[2] [7:0] $end
   $var wire 8 ( i_data[3] [7:0] $end
   $var wire 8 ) i_data[4] [7:0] $end
   $var wire 8 * i_data[5] [7:0] $end
   $var wire 8 + i_data[6] [7:0] $end
   $var wire 8 , i_data[7] [7:0] $end
   $var wire 1 . o_done $end
   $var wire 8 / o_data[0] [7:0] $end
   $var wire 8 0 o_data[1] [7:0] $end
   $var wire 8 1 o_data[2] [7:0] $end
   $var wire 8 2 o_data[3] [7:0] $end
   $var wire 8 3 o_data[4] [7:0] $end
   $var wire 8 4 o_data[5] [7:0] $end
   $var wire 8 5 o_data[6] [7:0] $end
   $var wire 8 6 o_data[7] [7:0] $end
   $var wire 32 - execution_cycles [31:0] $end
   $scope module dut $end
    $var wire 32 J NUM_VALS [31:0] $end
    $var wire 32 J SIZE_DATA [31:0] $end
    $var wire 1 I i_clk $end
    $var wire 1 # i_rst_n $end
    $var wire 1 $ i_start $end
    $var wire 8 % i_data[0] [7:0] $end
    $var wire 8 & i_data[1] [7:0] $end
    $var wire 8 ' i_data[2] [7:0] $end
    $var wire 8 ( i_data[3] [7:0] $end
    $var wire 8 ) i_data[4] [7:0] $end
    $var wire 8 * i_data[5] [7:0] $end
    $var wire 8 + i_data[6] [7:0] $end
    $var wire 8 , i_data[7] [7:0] $end
    $var wire 1 . o_done $end
    $var wire 8 / o_data[0] [7:0] $end
    $var wire 8 0 o_data[1] [7:0] $end
    $var wire 8 1 o_data[2] [7:0] $end
    $var wire 8 2 o_data[3] [7:0] $end
    $var wire 8 3 o_data[4] [7:0] $end
    $var wire 8 4 o_data[5] [7:0] $end
    $var wire 8 5 o_data[6] [7:0] $end
    $var wire 8 6 o_data[7] [7:0] $end
    $var wire 3 7 state [2:0] $end
    $var wire 8 8 arr_temp[0] [7:0] $end
    $var wire 8 9 arr_temp[1] [7:0] $end
    $var wire 8 : arr_temp[2] [7:0] $end
    $var wire 8 ; arr_temp[3] [7:0] $end
    $var wire 8 < arr_temp[4] [7:0] $end
    $var wire 8 = arr_temp[5] [7:0] $end
    $var wire 8 > arr_temp[6] [7:0] $end
    $var wire 8 ? arr_temp[7] [7:0] $end
    $var wire 8 @ key [7:0] $end
    $var wire 32 A i_sign [31:0] $end
    $var wire 8 B w_less_data [7:0] $end
    $var wire 8 C w_greater_data [7:0] $end
    $scope module u_compare_block $end
     $var wire 32 J SIZE_DATA [31:0] $end
     $var wire 8 D i_data_a [7:0] $end
     $var wire 8 E i_data_b [7:0] $end
     $var wire 1 K i_mode $end
     $var wire 8 B o_less_data [7:0] $end
     $var wire 8 C o_greater_data [7:0] $end
     $var wire 1 F w_compare_result $end
     $var wire 1 F w_after_compare_result $end
    $upscope $end
    $scope module unnamedblk1 $end
     $var wire 32 G i [31:0] $end
    $upscope $end
    $scope module unnamedblk2 $end
     $var wire 32 H i [31:0] $end
    $upscope $end
   $upscope $end
  $upscope $end
 $upscope $end
$enddefinitions $end


#0
0#
0$
b00000000 %
b00000000 &
b00000000 '
b00000000 (
b00000000 )
b00000000 *
b00000000 +
b00000000 ,
b00000000000000000000000000000000 -
0.
b00000000 /
b00000000 0
b00000000 1
b00000000 2
b00000000 3
b00000000 4
b00000000 5
b00000000 6
b000 7
b00000000 8
b00000000 9
b00000000 :
b00000000 ;
b00000000 <
b00000000 =
b00000000 >
b00000000 ?
b00000000 @
b00000000000000000000000000000000 A
b00000000 B
b00000000 C
b00000000 D
b00000000 E
0F
b00000000000000000000000000000000 G
b00000000000000000000000000000000 H
0I
b00000000000000000000000000001000 J
0K
#5000
1I
#10000
0I
#15000
1I
#20000
1#
0I
#25000
b001 7
1I
#30000
b00001100 %
b00000001 &
b00000001 '
b00010100 (
b00001111 *
b00011101 +
b00000001 ,
0I
#35000
b010 7
b00001100 8
b00000001 9
b00000001 :
b00010100 ;
b00001111 =
b00011101 >
b00000001 ?
b00000001 B
b00001100 C
b00001100 D
b00000001 E
b00000000000000000000000000001000 G
1I
#40000
1$
0I
#45000
b00000000000000000000000000000001 -
b011 7
1I
#50000
0I
#55000
b00000000000000000000000000000010 -
b100 7
b00000001 8
b00001100 9
b00000000000000000000000000000010 A
b00000001 D
b00001100 E
1F
1I
#60000
0I
#65000
b00000000000000000000000000000011 -
b101 7
b00000001 @
b00000000000000000000000000000001 A
1I
#70000
0I
#75000
b00000000000000000000000000000100 -
b00001100 :
b00000000000000000000000000000000 A
1I
#80000
0I
#85000
b00000000000000000000000000000101 -
b110 7
1I
#90000
0I
#95000
b00000000000000000000000000000110 -
b100 7
b00000001 9
b00000000000000000000000000000010 A
b00000001 C
b00000001 E
0F
1I
#100000
0I
#105000
b00000000000000000000000000000111 -
b101 7
b00001100 @
b00000000000000000000000000000001 A
1I
#110000
0I
#115000
b00000000000000000000000000001000 -
b110 7
1I
#120000
0I
#125000
b00000000000000000000000000001001 -
b100 7
b00000000000000000000000000000011 A
1I
#130000
0I
#135000
b00000000000000000000000000001010 -
b101 7
b00010100 @
b00000000000000000000000000000010 A
1I
#140000
0I
#145000
b00000000000000000000000000001011 -
b110 7
1I
#150000
0I
#155000
b00000000000000000000000000001100 -
b100 7
b00000000000000000000000000000100 A
1I
#160000
0I
#165000
b00000000000000000000000000001101 -
b101 7
b00000000 @
b00000000000000000000000000000011 A
1I
#170000
0I
#175000
b00000000000000000000000000001110 -
b00010100 <
b00000000000000000000000000000010 A
1I
#180000
0I
#185000
b00000000000000000000000000001111 -
b00001100 ;
b00000000000000000000000000000001 A
1I
#190000
0I
#195000
b00000000000000000000000000010000 -
b00000001 :
b00000000000000000000000000000000 A
1I
#200000
0I
#205000
b00000000000000000000000000010001 -
b11111111111111111111111111111111 A
1I
#210000
0I
#215000
b00000000000000000000000000010010 -
b110 7
1I
#220000
0I
#225000
b00000000000000000000000000010011 -
b100 7
b00000000 8
b00000000000000000000000000000001 A
b00000000 B
b00000000 D
1F
1I
#230000
0I
#235000
b00000000000000000000000000010100 -
b101 7
b00000001 @
b00000000000000000000000000000000 A
1I
#240000
0I
#245000
b00000000000000000000000000010101 -
b110 7
1I
#250000
0I
#255000
b00000000000000000000000000010110 -
b100 7
b00000000000000000000000000000010 A
1I
#260000
0I
#265000
b00000000000000000000000000010111 -
b101 7
b00000000000000000000000000000001 A
1I
#270000
0I
#275000
b00000000000000000000000000011000 -
b110 7
1I
#280000
0I
#285000
b00000000000000000000000000011001 -
b100 7
b00000000000000000000000000000011 A
1I
#290000
0I
#295000
b00000000000000000000000000011010 -
b101 7
b00001100 @
b00000000000000000000000000000010 A
1I
#300000
0I
#305000
b00000000000000000000000000011011 -
b110 7
1I
#310000
0I
#315000
b00000000000000000000000000011100 -
b100 7
b00000000000000000000000000000100 A
1I
#320000
0I
#325000
b00000000000000000000000000011101 -
b101 7
b00010100 @
b00000000000000000000000000000011 A
1I
#330000
0I
#335000
b00000000000000000000000000011110 -
b110 7
1I
#340000
0I
#345000
b00000000000000000000000000011111 -
b100 7
b00000000000000000000000000000101 A
1I
#350000
0I
#355000
b00000000000000000000000000100000 -
b101 7
b00001111 @
b00000000000000000000000000000100 A
1I
#360000
0I
#365000
b00000000000000000000000000100001 -
b00010100 =
b00000000000000000000000000000011 A
1I
#370000
0I
#375000
b00000000000000000000000000100010 -
b110 7
1I
#380000
0I
#385000
b00000000000000000000000000100011 -
b100 7
b00001111 <
b00000000000000000000000000000101 A
1I
#390000
0I
#395000
b00000000000000000000000000100100 -
b101 7
b00010100 @
b00000000000000000000000000000100 A
1I
#400000
0I
#405000
b00000000000000000000000000100101 -
b110 7
1I
#410000
0I
#415000
b00000000000000000000000000100110 -
b100 7
b00000000000000000000000000000110 A
1I
#420000
0I
#425000
b00000000000000000000000000100111 -
b101 7
b00011101 @
b00000000000000000000000000000101 A
1I
#430000
0I
#435000
b00000000000000000000000000101000 -
b110 7
1I
#440000
0I
#445000
b00000000000000000000000000101001 -
b100 7
b00000000000000000000000000000111 A
1I
#450000
0I
#455000
b00000000000000000000000000101010 -
b101 7
b00000001 @
b00000000000000000000000000000110 A
1I
#460000
0I
#465000
b00000000000000000000000000101011 -
b00011101 ?
b00000000000000000000000000000101 A
1I
#470000
0I
#475000
b00000000000000000000000000101100 -
b00010100 >
b00000000000000000000000000000100 A
1I
#480000
0I
#485000
b00000000000000000000000000101101 -
b00001111 =
b00000000000000000000000000000011 A
1I
#490000
0I
#495000
b00000000000000000000000000101110 -
b00001100 <
b00000000000000000000000000000010 A
1I
#500000
0I
#505000
b00000000000000000000000000101111 -
b110 7
1I
#510000
0I
#515000
b00000000000000000000000000110000 -
b100 7
b00000001 ;
b00000000000000000000000000000100 A
1I
#520000
0I
#525000
b00000000000000000000000000110001 -
b101 7
b00001100 @
b00000000000000000000000000000011 A
1I
#530000
0I
#535000
b00000000000000000000000000110010 -
b110 7
1I
#540000
0I
#545000
b00000000000000000000000000110011 -
b100 7
b00000000000000000000000000000101 A
1I
#550000
0I
#555000
b00000000000000000000000000110100 -
b101 7
b00001111 @
b00000000000000000000000000000100 A
1I
#560000
0I
#565000
b00000000000000000000000000110101 -
b110 7
1I
#570000
0I
#575000
b00000000000000000000000000110110 -
b100 7
b00000000000000000000000000000110 A
1I
#580000
0I
#585000
b00000000000000000000000000110111 -
b101 7
b00010100 @
b00000000000000000000000000000101 A
1I
#590000
0I
#595000
b00000000000000000000000000111000 -
b110 7
1I
#600000
0I
#605000
b00000000000000000000000000111001 -
b100 7
b00000000000000000000000000000111 A
1I
#610000
0I
#615000
b00000000000000000000000000111010 -
b101 7
b00011101 @
b00000000000000000000000000000110 A
1I
#620000
0I
#625000
b00000000000000000000000000111011 -
b110 7
1I
#630000
0I
#635000
b00000000000000000000000000111100 -
b100 7
b00000000000000000000000000001000 A
1I
#640000
0I
#645000
b00000000000000000000000000111101 -
b111 7
1I
#650000
0I
#655000
b00000000000000000000000000111110 -
1.
b00000001 0
b00000001 1
b00000001 2
b00001100 3
b00001111 4
b00010100 5
b00011101 6
b000 7
b00000000000000000000000000001000 H
1I
#660000
0I
#665000
b00000000000000000000000000111111 -
0.
b001 7
1I
#670000
0I
#675000
b010 7
b00001100 8
b00010100 ;
b00000000 <
b00011101 >
b00000001 ?
b00000001 B
b00001100 C
b00001100 D
0F
1I
